<?xml version="1.0" standalone="no"?>
<!DOCTYPE svg PUBLIC "-//W3C//DTD SVG 1.1//EN" "http://www.w3.org/Graphics/SVG/1.1/DTD/svg11.dtd" >
<svg xmlns="http://www.w3.org/2000/svg">
<metadata>Generated by IcoMoon</metadata>
<defs>
<font id="icomoon" horiz-adv-x="1024">
<font-face units-per-em="1024" ascent="960" descent="-64" />
<missing-glyph horiz-adv-x="1024" />
<glyph unicode="&#x20;" horiz-adv-x="512" d="" />
<glyph unicode="&#xe900;" glyph-name="social-icons-black-01" d="M797.734 960h-571.469c-124.872 0-226.266-101.394-226.266-226.266v-571.469c0-124.872 101.394-226.266 226.266-226.266h571.469c124.872 0 226.266 101.394 226.266 226.266v571.469c0 124.872-101.394 226.266-226.266 226.266zM511.871 197.095c-138.546 0-250.776 112.23-250.776 250.776s112.23 250.776 250.776 250.776 250.776-112.23 250.776-250.776-112.23-250.776-250.776-250.776zM823.018 698.905c-33.282 0-60.114 26.832-60.114 60.114s26.832 60.114 60.114 60.114 60.114-26.832 60.114-60.114-27.090-60.114-60.114-60.114z" />
<glyph unicode="&#xe901;" glyph-name="social-icons-black-02" horiz-adv-x="1462" d="M1432.155 799.782c-16.77 62.694-66.306 111.972-129 129-114.294 31.218-571.985 31.218-571.985 31.218s-457.691 0-572.243-30.186c-61.404-16.77-111.972-67.338-129-130.032-29.928-114.294-29.928-351.653-29.928-351.653s0-238.392 30.186-351.653c16.77-62.694 66.306-111.972 129-129 115.584-31.218 572.243-31.218 572.243-31.218s457.691 0 572.243 30.186c62.694 16.77 111.972 66.306 129 129 30.186 114.552 30.186 351.653 30.186 351.653s0.774 238.392-30.702 352.685zM585.401 228.829v438.341l380.549-219.3-380.549-219.042z" />
<glyph unicode="&#xe902;" glyph-name="social-icons-black-03" horiz-adv-x="512" d="M418.475 789.978h93.396v162.798c-15.996 2.322-71.466 7.224-135.966 7.224-134.676 0-227.040-84.882-227.040-240.456v-143.448h-148.866v-181.89h148.608v-457.949h182.406v457.691h142.674l22.704 181.89h-165.378v125.388c0 52.89 14.19 88.752 87.462 88.752v0z" />
<glyph unicode="&#xe903;" glyph-name="social-icons-black-04" d="M1023.742-64v0 0l0.258 375.647c0 183.696-39.474 325.079-254.388 325.079-103.2 0-172.602-56.76-200.724-110.424h-3.096v93.138h-203.562v-683.441h212.076v338.753c0 89.010 16.77 175.182 127.194 175.182 108.618 0 110.424-101.652 110.424-181.116v-332.819h211.818zM16.77 619.699h212.334v-683.441h-212.334v683.441zM123.066 960c-68.112 0-123.066-54.954-123.066-123.066s54.954-124.098 123.066-124.098 122.808 56.244 122.808 124.098c0 68.112-55.212 123.066-122.808 123.066z" />
<glyph unicode="&#xe904;" glyph-name="social-icons-black-05" horiz-adv-x="900" d="M899.128 703.549c-58.566 0-112.488 19.35-155.832 52.116-49.794 37.41-85.398 92.364-98.040 155.832-3.096 15.738-4.902 31.734-4.902 48.504h-167.184v-456.917l-0.258-250.26c0-66.822-43.602-123.582-103.974-143.448-17.544-5.676-36.378-8.514-56.244-7.482-25.284 1.29-48.762 9.030-69.144 21.156-43.602 26.058-73.272 73.272-74.046 127.452-1.29 84.624 67.080 153.51 151.704 153.51 16.77 0 32.766-2.838 47.73-7.74v170.022c-15.738 2.322-31.992 3.612-48.246 3.612-92.622 0-179.052-38.442-240.972-107.844-46.698-52.374-74.82-119.196-79.206-189.114-5.676-92.106 28.122-179.568 93.396-244.068 9.546-9.546 19.608-18.318 30.186-26.316 55.986-43.086 124.356-66.306 196.596-66.306 16.254 0 32.508 1.29 48.246 3.612 67.338 10.062 129.516 40.764 178.536 89.268 60.372 59.598 93.654 138.546 93.912 222.654l-0.774 373.583c28.638-22.188 60.114-40.506 93.912-54.696 52.374-22.188 108.102-33.282 165.378-33.282v166.152c-0.258 0-0.774 0-0.774 0v0z" />
<glyph unicode="&#xe905;" glyph-name="social-icons-black-06" horiz-adv-x="1260" d="M1260.070 838.74c-46.956-20.64-96.75-34.056-148.866-40.764 53.664 31.992 94.428 82.302 113.778 142.674-50.052-29.67-105.006-50.826-163.83-62.436-47.472 50.568-115.068 81.786-188.856 81.786-142.932 0-258.257-116.1-258.257-258.515 0-20.382 1.806-40.248 5.934-58.824-214.398 10.578-404.543 113.52-532.253 270.125-22.188-38.7-35.346-82.818-35.346-130.548 0-89.526 46.182-168.732 114.81-214.656-41.538 0.774-82.302 12.9-116.616 31.734 0-0.774 0-1.806 0-2.838 0-125.646 89.526-229.878 206.916-253.872-21.156-5.676-43.86-8.514-67.854-8.514-16.512 0-33.282 1.032-49.020 4.386 33.54-102.426 128.484-177.504 241.488-180.084-87.978-68.37-199.434-109.908-320.177-109.908-21.156 0-41.538 1.032-61.92 3.612 114.552-73.788 250.002-115.842 396.287-115.842 475.493 0 735.299 393.707 735.299 735.041 0 11.352-0.516 22.446-1.032 33.282 51.342 36.378 94.428 81.786 129.516 134.16z" />
</font></defs></svg>