<?xml version="1.0" encoding="utf-8"?>
<!-- Generator: Adobe Illustrator 24.0.1, SVG Export Plug-In . SVG Version: 6.00 Build 0)  -->
<svg version="1.1" id="Capa_1" xmlns="http://www.w3.org/2000/svg" xmlns:xlink="http://www.w3.org/1999/xlink" x="0px" y="0px"
	 viewBox="0 0 512 512" style="enable-background:new 0 0 512 512;" xml:space="preserve">
<style type="text/css">
	.st0{fill:#13007F;}
</style>
<g transform="translate(1 1)">
	<g>
		<g>
			<path class="st0" d="M211.26,389.24l-60.33,60.33c-25.01,25.01-65.52,25.01-90.51,0.01c-25-25-25-65.51-0.01-90.5L181.1,238.4
				c24.99-24.99,65.5-24.99,90.49,0c8.33,8.33,21.84,8.33,30.17,0c8.33-8.33,8.33-21.84,0-30.17c-41.65-41.65-109.18-41.65-150.83,0
				L30.25,328.91c-41.65,41.65-41.65,109.18,0,150.83c41.65,41.68,109.18,41.68,150.85,0l60.33-60.33c8.33-8.33,8.33-21.84,0-30.17
				S219.59,380.91,211.26,389.24z"/>
			<path class="st0" d="M479.75,30.24c-41.65-41.65-109.2-41.65-150.85,0l-72.38,72.38c-8.33,8.33-8.33,21.84,0,30.17
				c8.33,8.33,21.84,8.33,30.17,0l72.38-72.38c24.99-24.99,65.52-24.99,90.51,0c24.99,24.99,24.99,65.5,0,90.49L316.85,283.64
				c-24.99,24.99-65.5,24.99-90.49,0c-8.33-8.33-21.84-8.33-30.17,0s-8.33,21.84,0,30.17c41.65,41.65,109.18,41.65,150.83,0
				l132.74-132.74C521.41,139.42,521.41,71.89,479.75,30.24z"/>
		</g>
	</g>
</g>
</svg>
