<?xml version="1.0" encoding="utf-8"?>
<!-- Generator: Adobe Illustrator 24.0.1, SVG Export Plug-In . SVG Version: 6.00 Build 0)  -->
<svg version="1.1" id="Capa_1" xmlns="http://www.w3.org/2000/svg" xmlns:xlink="http://www.w3.org/1999/xlink" x="0px" y="0px"
	 viewBox="0 0 542.59 542.59" style="enable-background:new 0 0 542.59 542.59;" xml:space="preserve">
<style type="text/css">
	.st0{fill:#4B9EFF;}
</style>
<g>
	<g>
		<path class="st0" d="M253.85,124.66c0-22.11-18.18-40.04-40.63-40.04c-22.42,0-40.6,17.92-40.6,40.04
			c0,22.23,18.18,40.22,40.6,40.22C235.63,164.88,253.85,146.9,253.85,124.66z"/>
		<path class="st0" d="M419.32,163.87c-1.59-8.59-8.64-13.52-9.06-13.9L187.55,3.19c-8.82-5.8-20.83-3.47-26.83,5.22l-11.27,16.35
			c-4.2,6.41-2.36,14.74,3.96,18.89c6.36,4.21,13.33,1.04,17.42-5.37l8.6-21.18l199.61,131.97l-158.77,28.67
			c-11.28,1.82-19.39,13.1-16.88,24.08l34.54,133.66l-111.7,167.59c-6.74,11.44-2.67,26.18,8.9,32.7
			c11.7,6.65,26.43,2.56,33.16-8.86c0,0,116.57-175.27,117.01-176.47l6.07,24.49l-17.6,139.82c-2.17,13.02,6.76,25.3,20.01,27.5
			c13.2,2.22,25.67-6.63,27.92-19.64l18.05-143.51c0.57-3.46-0.14-11.07-0.98-14.34l-39.79-158.42l103.67-18.67
			C413.77,185.71,421.23,175.04,419.32,163.87z"/>
	</g>
</g>
</svg>
