<?xml version="1.0" encoding="utf-8"?>
<!-- Generator: Adobe Illustrator 24.0.1, SVG Export Plug-In . SVG Version: 6.00 Build 0)  -->
<svg version="1.1" id="Capa_1" xmlns="http://www.w3.org/2000/svg" xmlns:xlink="http://www.w3.org/1999/xlink" x="0px" y="0px"
	 viewBox="0 0 487.66 487.66" style="enable-background:new 0 0 487.66 487.66;" xml:space="preserve">
<style type="text/css">
	.st0{fill:#4B9EFF;}
</style>
<g id="XMLID_112_">
	<path id="XMLID_113_" class="st0" d="M485.4,406.85l-39.13-85.62c0,0,16.45-71.84,16.47-72.9c0.1-6.14-2.24-12.06-6.51-16.47
		l-77.32-79.86c2.26,3.59,4.05,7.55,5,11.95c2.21,10.24-0.03,20.38-5.39,28.48l11.53,48c3.28,13.66-4.39,27.8-17.72,32.42
		c-11.18,3.83-3.93,1.35-46.35,15.91c-7.66,4.15-12.64,11.99-13.03,20.73l-4.77,106.61c-0.62,13.75,10.04,25.39,23.78,26.01
		c0.37,0.02,0.75,0.02,1.13,0.02c13.25,0,24.28-10.44,24.88-23.81l4.12-92.2l36.25-18.72l-2.54,10.54
		c-1.31,5.42-0.75,11.12,1.57,16.19l42.71,93.45c5.7,12.48,20.44,18.05,33.02,12.3C485.61,434.16,491.12,419.37,485.4,406.85z"/>
	<path id="XMLID_114_" class="st0" d="M332.15,213.35l-0.11,11.86l-77.13,26.47c-10.85,3.71-16.62,15.53-12.9,26.38
		c2.95,8.61,11.01,14.03,19.64,14.03c2.23,0,4.51-0.36,6.74-1.14l91.02-31.23c8.32-2.86,13.95-10.64,14.03-19.44l0.4-42.12
		c-4.92,4.96-11.24,8.62-18.58,10.21L332.15,213.35z"/>
	<path id="XMLID_115_" class="st0" d="M212.3,117.16c16.98,9.69,38.12,4.83,49.55-10.42c1.33,7.15,4.67,14.02,10.12,19.65
		c14.73,15.19,39.01,15.58,54.21,0.85c15.22-14.73,15.6-38.98,0.88-54.2c-14.72-15.21-38.99-15.61-54.2-0.88
		c-1.52,1.48-2.8,3.12-4.03,4.78c-1.99-10.72-8.34-20.55-18.54-26.37c-18.4-10.49-41.81-4.08-52.29,14.31
		C187.51,83.27,193.9,106.67,212.3,117.16z"/>
	<path id="XMLID_116_" class="st0" d="M260.01,312.07c-0.04-0.02-66.69-41.47-66.74-41.5l23.53-41.27l9.7,14.3
		c1.42,2.09,3.33,3.7,5.35,5.13c4.33-5.72,10.35-10.26,17.65-12.77l37.53-12.88l-1.6,0.35c-3.85,0.83-7.69,0.34-11.03-1.16
		l-42.66-19.18l-33.2-14.93l79.51,17.9c3.03,0.67,6.08,0.66,8.94,0.03l64.75-13.96c11.21-2.41,18.33-13.46,15.92-24.68
		c-2.41-11.21-13.41-18.35-24.67-15.92l-60.27,12.99l-75.05-16.9l24.13,0.5c-1.48-1.24-3.03-2.41-4.77-3.4l-12.25-6.99
		c-7.6-4.33-16.62-5.48-25.07-3.16c-8.44,2.31-15.62,7.88-19.96,15.49l-99.3,182.65L6.8,400.11c-9.45,10-9,25.77,1.01,35.22
		c9.99,9.46,25.78,9,35.22-1.01l66.24-70.13c1.72-1.81,3.15-3.88,4.25-6.11L143.04,298c0.07,0.04,0.12,0.1,0.18,0.14l78.94,49.08
		l1.14,70.4c0.23,13.62,11.34,24.51,24.91,24.51c0.14,0,0.28,0,0.41,0c13.76-0.23,24.73-11.56,24.51-25.33l-1.36-83.98
		C271.64,324.36,267.21,316.55,260.01,312.07z"/>
</g>
</svg>
