<?xml version="1.0" encoding="utf-8"?>
<!-- Generator: Adobe Illustrator 24.0.1, SVG Export Plug-In . SVG Version: 6.00 Build 0)  -->
<svg version="1.1" id="Capa_1" xmlns="http://www.w3.org/2000/svg" xmlns:xlink="http://www.w3.org/1999/xlink" x="0px" y="0px"
	 viewBox="0 0 501.34 501.34" style="enable-background:new 0 0 501.34 501.34;" xml:space="preserve">
<style type="text/css">
	.st0{fill:#4B9EFF;}
</style>
<g>
	<g>
		<g>
			<path class="st0" d="M7.14,403.2c-8.33,8.33-8.33,21.83,0,30.17l30.17,30.27c8.33,8.33,21.83,8.33,30.17,0l75.43-75.37
				l-60.33-60.39L7.14,403.2z"/>
			<path class="st0" d="M97.65,312.79l60.33,60.33c25.49-25.49,70.1-3.14,123.07,2.39L95.24,189.7
				C100.79,242.69,123.12,287.32,97.65,312.79z"/>
			<path class="st0" d="M414.35,327.81c74.99-73.94,75.84-194.66,1.9-269.65c-0.02-0.02-0.04-0.04-0.07-0.07
				c-73.81-75.93-195.21-77.65-271.14-3.84c-0.72,0.7-1.43,1.4-2.14,2.11c-28.75,26.6-46.07,63.3-48.34,102.4l217.39,217.39
				C351.05,373.89,387.75,356.56,414.35,327.81z"/>
			<circle class="st0" cx="436.45" cy="437.34" r="64"/>
		</g>
	</g>
</g>
</svg>
