<?xml version="1.0" encoding="utf-8"?>
<!-- Generator: Adobe Illustrator 24.0.1, SVG Export Plug-In . SVG Version: 6.00 Build 0)  -->
<svg version="1.1" xmlns="http://www.w3.org/2000/svg" xmlns:xlink="http://www.w3.org/1999/xlink" x="0px" y="0px"
	 viewBox="0 0 417.93 391.03" style="enable-background:new 0 0 417.93 391.03;" xml:space="preserve">
<style type="text/css">
	.st0{fill:#4B9EFF;}
	.st1{fill:#FFFFFF;}
</style>
<g id="bg-white">
</g>
<g id="art">
	<g>
		<path class="st0" d="M208.97,10.27c56.62,0,102.69,46.07,102.69,102.69c0,18.04-4.82,35.58-13.6,50.92
			c-2.92,5.11,0.85,11.41,6.73,11.41c0.07,0,0.13,0,0.18,0c56.9,0,103.14,46.52,102.69,103.53
			c-0.45,55.32-45.2,100.67-100.51,101.82c-0.73,0.02-1.45,0.02-2.18,0.02c-38.23,0-71.65-21-89.33-52.08
			c-1.47-2.58-4.06-3.88-6.65-3.88c-2.59,0-5.19,1.29-6.66,3.88c-17.66,31.12-51.11,52.17-89.38,52.17c-0.71,0-1.41-0.01-2.13-0.02
			c-55.32-1.12-100.11-46.48-100.56-101.81c-0.47-57.01,45.78-103.54,102.68-103.54c0.05,0,0.1,0,0.16,0
			c5.91,0,9.68-6.31,6.74-11.42c-8.78-15.3-13.58-32.82-13.58-51.01C106.28,56.33,152.34,10.27,208.97,10.27 M208.97,0
			C146.68,0,96.01,50.67,96.01,112.96c0,16.96,3.84,33.73,11.17,48.96c0.74,1.54-0.3,3.35-2.01,3.46
			c-12.56,0.85-24.76,3.78-36.37,8.73c-13.51,5.76-25.62,13.99-36.01,24.46C11.4,220.13-0.24,248.7,0,279.01
			c0.24,29.45,11.84,57.28,32.66,78.37c20.83,21.09,48.51,33.03,77.95,33.63c0.78,0.02,1.56,0.02,2.34,0.02
			c20.32,0,40.27-5.48,57.68-15.86c14.81-8.82,27.43-20.95,36.86-35.32c0.71-1.09,2.31-1.09,3.02,0
			c9.43,14.35,22.05,26.45,36.84,35.25c17.4,10.36,37.32,15.83,57.63,15.83c0.79,0,1.59-0.01,2.39-0.02
			c29.44-0.61,57.11-12.56,77.92-33.65c20.81-21.09,32.4-48.91,32.64-78.36c0.24-30.31-11.4-58.88-32.79-80.44
			c-10.39-10.47-22.5-18.7-36.01-24.46c-11.63-4.96-23.86-7.88-36.45-8.73c-1.68-0.11-2.71-1.89-1.97-3.41
			c7.36-15.27,11.21-32.03,11.21-48.91C321.92,50.67,271.25,0,208.97,0z"/>
		<g>
			<path class="st0" d="M112.96,363.38c-47.04,0-85.31-38.27-85.31-85.31s38.27-85.31,85.31-85.31c47.04,0,85.31,38.27,85.31,85.31
				S160,363.38,112.96,363.38z"/>
			<g>
				<path class="st1" d="M166.97,257.36c-7.09,4.7-14.83,6.57-16.41,5.68c-0.97-0.55-2.79-3.39-4.4-5.84
					c-4.76-7.25-7.46-10.43-14.88-13.09c-6.02-2.15-13.62-2.76-23.25,0.29c-20.43,6.48-26.7,22.38-23.66,20.34
					c3.3-3.33,20.39-16.9,35.63-12.23l-17.15,26.71c-1.17,1.83-2.3,3.68-3.39,5.56c-2.37,4.07-7.66,13.05-14.82,19.8
					c-7.13,6.72-15.21,10.85-23.01,13.05c-8.28,2.33,5.43,4.7,20.36-1.24c13.57-5.4,22.62-15.33,28.89-24.73
					c0.47-0.71,0.75-1.14,2.07-1.18c0,0,4.45-0.65,13.62-0.52c4.9,0.07,6.48,0.6,6.2,1.31c-3.28,8.31-7.37,15.13-13.43,24.86
					c-0.62,1,0.1,2.21,1.55,1.45c11.16-5.89,19.82-18.54,23.4-26.69c2.72-6.19,0.81-11.21-6.44-12.42
					c-5.6-0.94-14.41-0.84-14.41-0.84s6.82-9.86,13.7-15.98c1.75,1.2,5.82,14.29,17.58,8.98
					C166.58,265.28,174.06,252.66,166.97,257.36z"/>
				<path class="st1" d="M147.61,222.78c5.39,0.88,8.88,6.08,8.07,13.52c-0.69,6.4-4.9,11.45-10.26,10.4
					c-5.36-1.05-9.85-7.56-9.04-13.95C137.19,226.37,142.22,221.9,147.61,222.78z"/>
			</g>
		</g>
		<g>
			<path class="st0" d="M208.97,198.27c-47.04,0-85.31-38.27-85.31-85.31c0-47.04,38.27-85.31,85.31-85.31s85.31,38.27,85.31,85.31
				C294.28,160,256.01,198.27,208.97,198.27z"/>
			<g>
				<path class="st1" d="M171.8,158.92c-15.43,0-27.98-12.55-27.98-27.98c0-15.43,12.55-27.98,27.98-27.98
					c15.43,0,27.98,12.55,27.98,27.98C199.78,146.37,187.23,158.92,171.8,158.92z M172.65,107.66c-12.13,0-22,9.87-22,22
					c0,12.13,9.87,22,22,22c12.13,0,22-9.87,22-22C194.66,117.53,184.79,107.66,172.65,107.66z"/>
				<path class="st1" d="M246.13,158.92c-15.43,0-27.98-12.55-27.98-27.98c0-15.43,12.55-27.98,27.98-27.98
					c15.43,0,27.98,12.55,27.98,27.98C274.12,146.37,261.56,158.92,246.13,158.92z M246.99,107.66c-12.13,0-22,9.87-22,22
					c0,12.13,9.87,22,22,22c12.13,0,22-9.87,22-22C268.99,117.53,259.12,107.66,246.99,107.66z"/>
				<path class="st1" d="M242.32,95.48c-5.6-0.08-10.13-0.24-13.6-1c-3.46-0.76-3.92-2.83-4.49-8.01c-0.98-8.89-1.45-16.1-5.84-18
					c-3.73-1.61-7.62-0.26-22.36,6.87c-12.26,5.93-17.53,7.93-15.68,15.62c1.14,4.74,6.6,7.01,12.49,10.05
					c3.12,1.61,6.66,3.05,9.77,5c0.7,0.44,2.19,1.76,2.65,3.33c2.29,7.79-1.45,28.52-1.25,29.14c0.34,1.04,1.34,0.19,2.4-1.99
					c4.21-8.67,7.32-20.91,7.77-26.67c0.49-6.31-0.58-8.96-6.33-12.54c-5.99-3.73-9.97-6.11-9.97-6.11s8.84-4.81,16.81-6.95
					c0.89,4.83,1.82,10.76,3.77,13.47c1.2,1.67,2.92,2.47,6.61,2.63c6.64,0.27,13.94-1.11,17.74-2.55
					C245.86,96.63,246.5,95.55,242.32,95.48z"/>
				<path class="st1" d="M233.24,54.47c4.8,0.85,7.82,5.44,6.97,11.92c-0.73,5.57-4.56,9.91-9.33,8.91c-4.77-1-8.66-6.75-7.83-12.3
					C223.89,57.44,228.45,53.62,233.24,54.47z"/>
			</g>
		</g>
		<g>
			<path class="st0" d="M304.98,363.29c-47.04,0-85.31-38.27-85.31-85.31c0-47.04,38.27-85.31,85.31-85.31
				c47.04,0,85.31,38.27,85.31,85.31C390.29,325.02,352.02,363.29,304.98,363.29z"/>
			<g>
				<g>
					<path class="st1" d="M250.43,291.34c-0.45-0.28-0.96,0.26-0.65,0.69c5.94,8.36,18.51,19.57,54.8,10.35
						c30.58-7.77,46.29-8.55,55.06-6.74c0.57,0.12,0.89-0.59,0.4-0.89c-5.96-3.64-23.81-11.63-55.45-2.52
						C270.54,302.03,255.87,294.72,250.43,291.34z"/>
					<path class="st1" d="M259.65,260.87c5.33-2.09,33.08-9.64,45.3,6.55l-44.82,22.1c5.87,1.76,11.94,2,14.86,2
						c8.37,0,17.15-1.57,27.94-4.68c9.91-2.85,19.4-4.33,28.24-4.42c-3.12-10.28-11.65-28.14-34.51-31.62
						C270.38,246.79,255.21,261.7,259.65,260.87z"/>
				</g>
				<path class="st1" d="M352.99,253.79c4.73,3.42,5.91,11.73,0.47,18.68c-4.68,5.98-12.93,7.84-17.55,4.36
					c-5.35-4.02-5.11-13.37-0.78-19.23C339.96,251.04,347.98,250.17,352.99,253.79z"/>
			</g>
		</g>
	</g>
</g>
</svg>
