<?xml version="1.0" encoding="utf-8"?>
<!-- Generator: Adobe Illustrator 24.0.1, SVG Export Plug-In . SVG Version: 6.00 Build 0)  -->
<svg version="1.1" id="Capa_1" xmlns="http://www.w3.org/2000/svg" xmlns:xlink="http://www.w3.org/1999/xlink" x="0px" y="0px"
	 viewBox="0 0 496.63 496.63" style="enable-background:new 0 0 496.63 496.63;" xml:space="preserve">
<style type="text/css">
	.st0{fill:#4B9EFF;}
</style>
<g id="XMLID_511_">
	<path id="XMLID_512_" class="st0" d="M141.87,417.14c-11.75,9.04-26.28,14.63-42.22,14.63c-38.41,0-69.67-31.26-69.67-69.67
		c0-38.42,31.26-69.68,69.67-69.68c28.99,0,53.85,17.83,64.34,43.07l21.82-22.63c-17.18-29.99-49.12-50.43-86.15-50.43
		C44.61,262.44,0,307.06,0,362.11c0,55.04,44.61,99.65,99.65,99.65c25.9,0,49.27-10.12,66.99-26.33c-6.8-2.28-13.26-5.9-18.77-11.21
		C145.6,422.02,143.64,419.62,141.87,417.14z"/>
	<path id="XMLID_513_" class="st0" d="M293.19,263.2l-52.77-30.65c23.53-14.73,14.81-9.27,38.34-24l-0.74,7.5
		c-1.27,12.76,8.13,24.43,19.97,26.83c0.28,0.06,92.64,15.76,96,15.76c12,0,22.59-8.67,24.62-20.9
		c2.27-13.62-6.94-26.48-20.56-28.74l-67.99-11.29l3.23-32.45c3.26-20.73,4.67-27.23-3.07-39.6l-9.73-15.56
		c-12.57-20.08-39.08-26.22-59.21-13.62l-106.51,66.69c-26.16,16.38-38.92,50.92-17.56,76.32c8.34,9.93,89.47,59.78,89.47,59.78
		l-65.7,68.15c-11.5,11.92-11.16,30.9,0.77,42.39c5.82,5.61,13.32,8.4,20.81,8.4c7.86,0,15.71-3.06,21.58-9.18l95.56-99.11
		C313.19,295.99,310.03,272.98,293.19,263.2z"/>
	<path id="XMLID_514_" class="st0" d="M405.13,127.07c23.36-14.63,30.44-45.42,15.81-68.77c-14.62-23.37-45.41-30.45-68.77-15.82
		c-23.35,14.62-30.43,45.4-15.81,68.75C350.99,134.6,381.78,141.69,405.13,127.07z"/>
	<path id="XMLID_515_" class="st0" d="M396.97,262.44c-55.62,0-99.65,45.89-99.65,99.66c0,55.04,44.61,99.65,99.65,99.65
		c55.03,0,99.65-44.62,99.65-99.65C496.63,307.06,452.01,262.44,396.97,262.44z M396.97,431.77c-38.41,0-69.67-31.26-69.67-69.67
		c0-38.42,31.26-69.68,69.67-69.68c38.41,0,69.67,31.26,69.67,69.68C466.64,400.52,435.39,431.77,396.97,431.77z"/>
</g>
</svg>
