<?xml version="1.0" encoding="utf-8"?>
<!-- Generator: Adobe Illustrator 24.0.1, SVG Export Plug-In . SVG Version: 6.00 Build 0)  -->
<svg version="1.1" id="Capa_1" xmlns="http://www.w3.org/2000/svg" xmlns:xlink="http://www.w3.org/1999/xlink" x="0px" y="0px"
	 viewBox="0 0 585.39 585.39" style="enable-background:new 0 0 585.39 585.39;" xml:space="preserve">
<style type="text/css">
	.st0{fill:#4B9EFF;}
</style>
<g>
	<g>
		<path class="st0" d="M423,161.01c2.52,0.79,5.2-0.64,5.98-3.15c1.15-3.7,27.75-90.99,1.15-134.13
			c-7.78-12.62-19.33-20.29-34.3-22.79c-25.94-4.3-46.75,6.26-56.99,29.07c-1.59,3.53-2.85,7.21-3.79,10.93
			c-28.45-10.77-72.61-17.3-119.67-13.4c-57.02,4.73-97.43,40.9-116.23,73.16c-14.63,25.1-18.58,50.44-10.57,67.79
			c10.12,21.9,29.3,32.78,45.33,32.78c3.07,0,6.02-0.4,8.78-1.2c14.57-4.23,21.76-18.21,19.24-37.41
			c-0.52-3.91-0.64-7.53-0.54-10.95l8.07,39.46c0.83,4.09,2.74,7.89,5.5,11.03l34.65,39.27l-7.62,49.99
			c-1.41,5.09-0.45,12.95,2.15,17.55l20.12,48.62c-1.16,3.39-1.92,6.96-1.92,10.75v183.52c0,18.48,14.98,33.47,33.47,33.47
			s33.47-14.98,33.47-33.47V392.86l59.79,17.25c3.01,0.87,6.14,1.31,9.27,1.31h109.1c18.48,0,33.47-14.98,33.47-33.47
			s-14.98-33.47-33.47-33.47H363.06l-16.12-4.66c-0.22-0.16-0.3-0.35-0.55-0.5l-46.71-29.61c-4.47-2.83-7.15-9.3-6.02-14.46
			l5.2-23.53l18.53-12.01l107.88-31.11c12.69-3.66,20.01-16.92,16.35-29.6c-3.65-12.68-16.91-19.99-29.6-16.35l-111.29,32.08
			c-2.26,0.65-4.41,1.63-6.38,2.92l-10.64,6.9l-33.78-9.48c-0.23-0.29-0.39-0.61-0.64-0.89l-34.28-38.86l-10.28-50.23
			c-2.64-12.93-15.27-21.24-28.21-18.63c-11.21,2.29-18.94,12.1-19.09,23.08c-5.01,9.07-6.83,20.49-4.99,34.35
			c1.88,14.3-2.64,24.14-12.42,26.97c-13,3.79-33.01-5.28-42.77-26.41c-6.61-14.29-2.71-36.88,10.15-58.96
			c17.59-30.18,55.4-64.01,108.76-68.45c47.49-3.95,91.21,3.36,117.19,13.33c-1.48,13.71,1.37,26.47,8.23,32.02
			c2.42,1.95,9.01,5.78,17.97-0.81c9.33-6.87,8.32-14.32,6.89-18.15c-2.48-6.61-10.45-13.08-22.47-18.73
			c0.8-3.57,1.98-7.21,3.58-10.77c4.9-10.89,17.48-28.39,46.7-23.56c12.31,2.05,21.37,8.06,27.73,18.36
			c24.34,39.46-1.86,125.43-2.13,126.29C419.06,157.56,420.47,160.22,423,161.01z M357.48,66.79c0.39,1.04,1.31,3.49-3.6,7.1
			c-4.01,2.94-5.59,1.64-6.29,1.08c-3.3-2.67-5.5-10.73-4.98-20.54C350.75,58.48,355.97,62.76,357.48,66.79z"/>
		<circle class="st0" cx="289.27" cy="145.45" r="57.89"/>
	</g>
</g>
</svg>
